{
    "family": {
        "getfamilyById": {
            "method": "GET",
            "api": "family/{familyId}"
        },
        "getfamilyElegibility": {
            "method": "GET",
            "api": "family/{familyId}/eligibility"
        },
        "addnewFamily": {
            "method": "POST",
            "api": "family"
        },
        "addnewParent": {
            "method": "POST",
            "api": "parent"
        }
    },
    "parent": {
        "getparentById": {
            "method": "GET",
            "api": "parent/{parentId}"
        },
        "addnewParent": {
            "method": "POST",
            "api": "parent"
        }
    },
    "child": {
        "getchildById": {
            "method": "GET",
            "api": "child/{childId}"
        },
        "addnewChild": {
            "method": "POST",
            "api": "child"
        }
    }
}

